[2020-07-14 19:57:29.113164]: Username and Password changed.
[2020-07-14 19:58:36.830856]: Username and Password changed.
[2020-07-14 19:58:56.097216]: Username and Password changed.
[2020-07-14 19:59:03.461223]: Username and Password changed.
